(kicad_sch (version 20211123) (generator eeschema)

  (uuid ac94c12d-1e2f-4700-9b45-563c04d5170a)

  (paper "A4")

  (lib_symbols
    (symbol "Connector:Conn_01x02_Male" (pin_names (offset 1.016) hide) (in_bom yes) (on_board yes)
      (property "Reference" "J" (id 0) (at 0 2.54 0)
        (effects (font (size 1.27 1.27)))
      )
      (property "Value" "Conn_01x02_Male" (id 1) (at 0 -5.08 0)
        (effects (font (size 1.27 1.27)))
      )
      (property "Footprint" "" (id 2) (at 0 0 0)
        (effects (font (size 1.27 1.27)) hide)
      )
      (property "Datasheet" "~" (id 3) (at 0 0 0)
        (effects (font (size 1.27 1.27)) hide)
      )
      (property "ki_keywords" "connector" (id 4) (at 0 0 0)
        (effects (font (size 1.27 1.27)) hide)
      )
      (property "ki_description" "Generic connector, single row, 01x02, script generated (kicad-library-utils/schlib/autogen/connector/)" (id 5) (at 0 0 0)
        (effects (font (size 1.27 1.27)) hide)
      )
      (property "ki_fp_filters" "Connector*:*_1x??_*" (id 6) (at 0 0 0)
        (effects (font (size 1.27 1.27)) hide)
      )
      (symbol "Conn_01x02_Male_1_1"
        (polyline
          (pts
            (xy 1.27 -2.54)
            (xy 0.8636 -2.54)
          )
          (stroke (width 0.1524) (type default) (color 0 0 0 0))
          (fill (type none))
        )
        (polyline
          (pts
            (xy 1.27 0)
            (xy 0.8636 0)
          )
          (stroke (width 0.1524) (type default) (color 0 0 0 0))
          (fill (type none))
        )
        (rectangle (start 0.8636 -2.413) (end 0 -2.667)
          (stroke (width 0.1524) (type default) (color 0 0 0 0))
          (fill (type outline))
        )
        (rectangle (start 0.8636 0.127) (end 0 -0.127)
          (stroke (width 0.1524) (type default) (color 0 0 0 0))
          (fill (type outline))
        )
        (pin passive line (at 5.08 0 180) (length 3.81)
          (name "Pin_1" (effects (font (size 1.27 1.27))))
          (number "1" (effects (font (size 1.27 1.27))))
        )
        (pin passive line (at 5.08 -2.54 180) (length 3.81)
          (name "Pin_2" (effects (font (size 1.27 1.27))))
          (number "2" (effects (font (size 1.27 1.27))))
        )
      )
    )
    (symbol "Device:R_Small_US" (pin_numbers hide) (pin_names (offset 0.254) hide) (in_bom yes) (on_board yes)
      (property "Reference" "R" (id 0) (at 0.762 0.508 0)
        (effects (font (size 1.27 1.27)) (justify left))
      )
      (property "Value" "R_Small_US" (id 1) (at 0.762 -1.016 0)
        (effects (font (size 1.27 1.27)) (justify left))
      )
      (property "Footprint" "" (id 2) (at 0 0 0)
        (effects (font (size 1.27 1.27)) hide)
      )
      (property "Datasheet" "~" (id 3) (at 0 0 0)
        (effects (font (size 1.27 1.27)) hide)
      )
      (property "ki_keywords" "r resistor" (id 4) (at 0 0 0)
        (effects (font (size 1.27 1.27)) hide)
      )
      (property "ki_description" "Resistor, small US symbol" (id 5) (at 0 0 0)
        (effects (font (size 1.27 1.27)) hide)
      )
      (property "ki_fp_filters" "R_*" (id 6) (at 0 0 0)
        (effects (font (size 1.27 1.27)) hide)
      )
      (symbol "R_Small_US_1_1"
        (polyline
          (pts
            (xy 0 0)
            (xy 1.016 -0.381)
            (xy 0 -0.762)
            (xy -1.016 -1.143)
            (xy 0 -1.524)
          )
          (stroke (width 0) (type default) (color 0 0 0 0))
          (fill (type none))
        )
        (polyline
          (pts
            (xy 0 1.524)
            (xy 1.016 1.143)
            (xy 0 0.762)
            (xy -1.016 0.381)
            (xy 0 0)
          )
          (stroke (width 0) (type default) (color 0 0 0 0))
          (fill (type none))
        )
        (pin passive line (at 0 2.54 270) (length 1.016)
          (name "~" (effects (font (size 1.27 1.27))))
          (number "1" (effects (font (size 1.27 1.27))))
        )
        (pin passive line (at 0 -2.54 90) (length 1.016)
          (name "~" (effects (font (size 1.27 1.27))))
          (number "2" (effects (font (size 1.27 1.27))))
        )
      )
    )
    (symbol "Transistor_FET:AO3400A" (pin_names hide) (in_bom yes) (on_board yes)
      (property "Reference" "Q" (id 0) (at 5.08 1.905 0)
        (effects (font (size 1.27 1.27)) (justify left))
      )
      (property "Value" "AO3400A" (id 1) (at 5.08 0 0)
        (effects (font (size 1.27 1.27)) (justify left))
      )
      (property "Footprint" "Package_TO_SOT_SMD:SOT-23" (id 2) (at 5.08 -1.905 0)
        (effects (font (size 1.27 1.27) italic) (justify left) hide)
      )
      (property "Datasheet" "http://www.aosmd.com/pdfs/datasheet/AO3400A.pdf" (id 3) (at 0 0 0)
        (effects (font (size 1.27 1.27)) (justify left) hide)
      )
      (property "ki_keywords" "N-Channel MOSFET" (id 4) (at 0 0 0)
        (effects (font (size 1.27 1.27)) hide)
      )
      (property "ki_description" "30V Vds, 5.7A Id, N-Channel MOSFET, SOT-23" (id 5) (at 0 0 0)
        (effects (font (size 1.27 1.27)) hide)
      )
      (property "ki_fp_filters" "SOT?23*" (id 6) (at 0 0 0)
        (effects (font (size 1.27 1.27)) hide)
      )
      (symbol "AO3400A_0_1"
        (polyline
          (pts
            (xy 0.254 0)
            (xy -2.54 0)
          )
          (stroke (width 0) (type default) (color 0 0 0 0))
          (fill (type none))
        )
        (polyline
          (pts
            (xy 0.254 1.905)
            (xy 0.254 -1.905)
          )
          (stroke (width 0.254) (type default) (color 0 0 0 0))
          (fill (type none))
        )
        (polyline
          (pts
            (xy 0.762 -1.27)
            (xy 0.762 -2.286)
          )
          (stroke (width 0.254) (type default) (color 0 0 0 0))
          (fill (type none))
        )
        (polyline
          (pts
            (xy 0.762 0.508)
            (xy 0.762 -0.508)
          )
          (stroke (width 0.254) (type default) (color 0 0 0 0))
          (fill (type none))
        )
        (polyline
          (pts
            (xy 0.762 2.286)
            (xy 0.762 1.27)
          )
          (stroke (width 0.254) (type default) (color 0 0 0 0))
          (fill (type none))
        )
        (polyline
          (pts
            (xy 2.54 2.54)
            (xy 2.54 1.778)
          )
          (stroke (width 0) (type default) (color 0 0 0 0))
          (fill (type none))
        )
        (polyline
          (pts
            (xy 2.54 -2.54)
            (xy 2.54 0)
            (xy 0.762 0)
          )
          (stroke (width 0) (type default) (color 0 0 0 0))
          (fill (type none))
        )
        (polyline
          (pts
            (xy 0.762 -1.778)
            (xy 3.302 -1.778)
            (xy 3.302 1.778)
            (xy 0.762 1.778)
          )
          (stroke (width 0) (type default) (color 0 0 0 0))
          (fill (type none))
        )
        (polyline
          (pts
            (xy 1.016 0)
            (xy 2.032 0.381)
            (xy 2.032 -0.381)
            (xy 1.016 0)
          )
          (stroke (width 0) (type default) (color 0 0 0 0))
          (fill (type outline))
        )
        (polyline
          (pts
            (xy 2.794 0.508)
            (xy 2.921 0.381)
            (xy 3.683 0.381)
            (xy 3.81 0.254)
          )
          (stroke (width 0) (type default) (color 0 0 0 0))
          (fill (type none))
        )
        (polyline
          (pts
            (xy 3.302 0.381)
            (xy 2.921 -0.254)
            (xy 3.683 -0.254)
            (xy 3.302 0.381)
          )
          (stroke (width 0) (type default) (color 0 0 0 0))
          (fill (type none))
        )
        (circle (center 1.651 0) (radius 2.794)
          (stroke (width 0.254) (type default) (color 0 0 0 0))
          (fill (type none))
        )
        (circle (center 2.54 -1.778) (radius 0.254)
          (stroke (width 0) (type default) (color 0 0 0 0))
          (fill (type outline))
        )
        (circle (center 2.54 1.778) (radius 0.254)
          (stroke (width 0) (type default) (color 0 0 0 0))
          (fill (type outline))
        )
      )
      (symbol "AO3400A_1_1"
        (pin input line (at -5.08 0 0) (length 2.54)
          (name "G" (effects (font (size 1.27 1.27))))
          (number "1" (effects (font (size 1.27 1.27))))
        )
        (pin passive line (at 2.54 -5.08 90) (length 2.54)
          (name "S" (effects (font (size 1.27 1.27))))
          (number "2" (effects (font (size 1.27 1.27))))
        )
        (pin passive line (at 2.54 5.08 270) (length 2.54)
          (name "D" (effects (font (size 1.27 1.27))))
          (number "3" (effects (font (size 1.27 1.27))))
        )
      )
    )
    (symbol "power:GND" (power) (pin_names (offset 0)) (in_bom yes) (on_board yes)
      (property "Reference" "#PWR" (id 0) (at 0 -6.35 0)
        (effects (font (size 1.27 1.27)) hide)
      )
      (property "Value" "GND" (id 1) (at 0 -3.81 0)
        (effects (font (size 1.27 1.27)))
      )
      (property "Footprint" "" (id 2) (at 0 0 0)
        (effects (font (size 1.27 1.27)) hide)
      )
      (property "Datasheet" "" (id 3) (at 0 0 0)
        (effects (font (size 1.27 1.27)) hide)
      )
      (property "ki_keywords" "power-flag" (id 4) (at 0 0 0)
        (effects (font (size 1.27 1.27)) hide)
      )
      (property "ki_description" "Power symbol creates a global label with name \"GND\" , ground" (id 5) (at 0 0 0)
        (effects (font (size 1.27 1.27)) hide)
      )
      (symbol "GND_0_1"
        (polyline
          (pts
            (xy 0 0)
            (xy 0 -1.27)
            (xy 1.27 -1.27)
            (xy 0 -2.54)
            (xy -1.27 -1.27)
            (xy 0 -1.27)
          )
          (stroke (width 0) (type default) (color 0 0 0 0))
          (fill (type none))
        )
      )
      (symbol "GND_1_1"
        (pin power_in line (at 0 0 270) (length 0) hide
          (name "GND" (effects (font (size 1.27 1.27))))
          (number "1" (effects (font (size 1.27 1.27))))
        )
      )
    )
  )

  (junction (at 103.1748 50.6984) (diameter 0) (color 0 0 0 0)
    (uuid 1db670cc-f2f8-47f1-8b89-6e7d8953e64d)
  )
  (junction (at 117.6782 57.3786) (diameter 0) (color 0 0 0 0)
    (uuid 20f9bef3-1a7f-49fc-a60b-68e846d031ce)
  )
  (junction (at 95.5548 58.039) (diameter 0) (color 0 0 0 0)
    (uuid 3641348d-4d5b-453c-b35e-80f360c8076d)
  )
  (junction (at 126.492 50.6984) (diameter 0) (color 0 0 0 0)
    (uuid 68349a86-10ba-4de3-96c9-6866c16c034e)
  )
  (junction (at 92.1766 58.0644) (diameter 0) (color 0 0 0 0)
    (uuid 9fd63a38-ae31-4e7f-bd97-b26679099788)
  )
  (junction (at 142.0876 55.7784) (diameter 0) (color 0 0 0 0)
    (uuid fba6e7b6-0863-461e-bde3-d221aaa40599)
  )

  (wire (pts (xy 140.8176 55.7784) (xy 142.0876 55.7784))
    (stroke (width 0) (type default) (color 0 0 0 0))
    (uuid 014d4724-5ae6-4ab5-a071-23e116aadbf1)
  )
  (wire (pts (xy 126.492 50.6984) (xy 126.492 52.959))
    (stroke (width 0) (type default) (color 0 0 0 0))
    (uuid 0cffba40-7bc2-436e-a819-d6a7e0e0e768)
  )
  (wire (pts (xy 143.6878 55.7784) (xy 143.6878 57.15))
    (stroke (width 0) (type default) (color 0 0 0 0))
    (uuid 143026e4-7309-49b6-8c19-dab548d76ffa)
  )
  (wire (pts (xy 76.5556 50.6984) (xy 103.1748 50.6984))
    (stroke (width 0) (type default) (color 0 0 0 0))
    (uuid 15471e19-164f-48a9-bee6-f03742a8d35d)
  )
  (wire (pts (xy 92.1766 58.0644) (xy 95.5548 58.0644))
    (stroke (width 0) (type default) (color 0 0 0 0))
    (uuid 33fac0b5-e137-489f-bb27-251da42fc8d2)
  )
  (wire (pts (xy 95.5548 58.0644) (xy 95.5548 58.039))
    (stroke (width 0) (type default) (color 0 0 0 0))
    (uuid 6137822d-36ed-4545-b76f-4ffef5a6d74f)
  )
  (wire (pts (xy 76.5556 53.2384) (xy 78.1812 53.2384))
    (stroke (width 0) (type default) (color 0 0 0 0))
    (uuid 61b42055-9297-49b1-ae5e-21451e411d29)
  )
  (wire (pts (xy 78.1812 53.2384) (xy 78.1812 54.5338))
    (stroke (width 0) (type default) (color 0 0 0 0))
    (uuid 6ff20a1d-8242-42dc-87ce-ca3cefec00d4)
  )
  (wire (pts (xy 117.6782 57.3786) (xy 118.872 57.3786))
    (stroke (width 0) (type default) (color 0 0 0 0))
    (uuid 7965eba3-e8e1-4831-8168-a99d69c97bd4)
  )
  (wire (pts (xy 103.1748 50.6984) (xy 103.1748 52.959))
    (stroke (width 0) (type default) (color 0 0 0 0))
    (uuid 7d9e0f05-8562-438d-93c6-cc64313b5f73)
  )
  (wire (pts (xy 126.492 50.6984) (xy 151.3078 50.6984))
    (stroke (width 0) (type default) (color 0 0 0 0))
    (uuid 89077b65-cbe5-4dfd-9cd1-27d33613bc2f)
  )
  (wire (pts (xy 103.1748 50.6984) (xy 126.492 50.6984))
    (stroke (width 0) (type default) (color 0 0 0 0))
    (uuid 9b81c7e0-b319-496d-8437-6032ff45d8e4)
  )
  (wire (pts (xy 151.3078 50.6984) (xy 151.3078 52.07))
    (stroke (width 0) (type default) (color 0 0 0 0))
    (uuid ad294c59-f1d5-4c8e-af24-c4ab90f41731)
  )
  (wire (pts (xy 118.872 57.3786) (xy 118.872 58.039))
    (stroke (width 0) (type default) (color 0 0 0 0))
    (uuid b0307edf-9f52-4861-bbf7-7bbea379cd8d)
  )
  (wire (pts (xy 89.789 58.0644) (xy 92.1766 58.0644))
    (stroke (width 0) (type default) (color 0 0 0 0))
    (uuid cc781741-ed4e-415c-a70e-8d9fdcc9c627)
  )
  (wire (pts (xy 92.1766 58.0644) (xy 92.1766 59.7916))
    (stroke (width 0) (type default) (color 0 0 0 0))
    (uuid cf3f70f7-9ea0-480f-b328-33d24345d64d)
  )
  (wire (pts (xy 142.0876 55.7784) (xy 143.6878 55.7784))
    (stroke (width 0) (type default) (color 0 0 0 0))
    (uuid db1edafe-fbf0-43bd-bdf1-a8324529f15d)
  )
  (wire (pts (xy 116.4336 57.3786) (xy 117.6782 57.3786))
    (stroke (width 0) (type default) (color 0 0 0 0))
    (uuid e63baf30-8717-4d8c-a925-16ed377fb3c0)
  )
  (wire (pts (xy 117.6782 57.3786) (xy 117.6782 59.7916))
    (stroke (width 0) (type default) (color 0 0 0 0))
    (uuid f0d2fb93-5028-41b5-8367-b71e9a274cd5)
  )
  (wire (pts (xy 142.0876 55.7784) (xy 142.0876 58.6994))
    (stroke (width 0) (type default) (color 0 0 0 0))
    (uuid f730adeb-e35f-42d6-99b2-a65091c6deb6)
  )

  (text "Not sure if you want this here:\n\nGP LEDS\nPushButton or 2 for testing\nUSB Connector\nTesting Connector\nJumpers for debugging and inserting signals"
    (at 238.76 27.94 0)
    (effects (font (size 1.27 1.27)) (justify left bottom))
    (uuid ed0570b7-a7a2-464c-be6e-20e69ad86ee9)
  )

  (hierarchical_label "Coil 2" (shape input) (at 116.4336 57.3786 180)
    (effects (font (size 1.27 1.27)) (justify right))
    (uuid 12030801-7ea0-46d6-b09c-32607663eec6)
  )
  (hierarchical_label "Coil 3" (shape input) (at 140.8176 55.7784 180)
    (effects (font (size 1.27 1.27)) (justify right))
    (uuid 33924ae3-7700-4d12-b9ab-b4a7cf801eeb)
  )
  (hierarchical_label "Coil 1" (shape input) (at 89.789 58.0644 180)
    (effects (font (size 1.27 1.27)) (justify right))
    (uuid f8567fb6-c885-4c9a-b0d9-705d6c23f25a)
  )

  (symbol (lib_id "Transistor_FET:AO3400A") (at 123.952 58.039 0) (unit 1)
    (in_bom yes) (on_board yes) (fields_autoplaced)
    (uuid 155c7845-a862-415c-92e3-babc01af615a)
    (property "Reference" "Q3" (id 0) (at 129.9972 56.7689 0)
      (effects (font (size 1.27 1.27)) (justify left))
    )
    (property "Value" "AO3400A" (id 1) (at 129.9972 59.3089 0)
      (effects (font (size 1.27 1.27)) (justify left))
    )
    (property "Footprint" "Package_TO_SOT_SMD:SOT-23" (id 2) (at 129.032 59.944 0)
      (effects (font (size 1.27 1.27) italic) (justify left) hide)
    )
    (property "Datasheet" "http://www.aosmd.com/pdfs/datasheet/AO3400A.pdf" (id 3) (at 123.952 58.039 0)
      (effects (font (size 1.27 1.27)) (justify left) hide)
    )
    (property "JLC Part Number" "C20917" (id 4) (at 123.952 58.039 0)
      (effects (font (size 1.27 1.27)) hide)
    )
    (property "LCSC" "C20917" (id 5) (at 123.952 58.039 0)
      (effects (font (size 1.27 1.27)) hide)
    )
    (pin "1" (uuid cb99993a-8404-48d6-ad97-341e2647bb39))
    (pin "2" (uuid b836e37e-67a6-4d8d-b3b1-34615084852a))
    (pin "3" (uuid f17eed8d-e7d4-4a95-a02b-77f31e1fd382))
  )

  (symbol (lib_id "power:GND") (at 126.492 63.119 0) (unit 1)
    (in_bom yes) (on_board yes) (fields_autoplaced)
    (uuid 28f68299-8b67-49a8-aba4-3b27364c8ff0)
    (property "Reference" "#PWR045" (id 0) (at 126.492 69.469 0)
      (effects (font (size 1.27 1.27)) hide)
    )
    (property "Value" "GND" (id 1) (at 126.492 68.2498 0))
    (property "Footprint" "" (id 2) (at 126.492 63.119 0)
      (effects (font (size 1.27 1.27)) hide)
    )
    (property "Datasheet" "" (id 3) (at 126.492 63.119 0)
      (effects (font (size 1.27 1.27)) hide)
    )
    (pin "1" (uuid 09ca8a0b-caf4-4252-9f91-577aff3fde2a))
  )

  (symbol (lib_id "power:GND") (at 151.3078 62.23 0) (unit 1)
    (in_bom yes) (on_board yes) (fields_autoplaced)
    (uuid 460d0b98-435b-49b6-94ca-5b9a8845a7b7)
    (property "Reference" "#PWR049" (id 0) (at 151.3078 68.58 0)
      (effects (font (size 1.27 1.27)) hide)
    )
    (property "Value" "GND" (id 1) (at 151.3078 67.3608 0))
    (property "Footprint" "" (id 2) (at 151.3078 62.23 0)
      (effects (font (size 1.27 1.27)) hide)
    )
    (property "Datasheet" "" (id 3) (at 151.3078 62.23 0)
      (effects (font (size 1.27 1.27)) hide)
    )
    (pin "1" (uuid 41c2e72d-689c-4d75-9887-ab0b28f392e9))
  )

  (symbol (lib_id "power:GND") (at 78.1812 54.5338 0) (unit 1)
    (in_bom yes) (on_board yes) (fields_autoplaced)
    (uuid 4ecaf681-48bc-4755-b366-740204c042c1)
    (property "Reference" "#PWR041" (id 0) (at 78.1812 60.8838 0)
      (effects (font (size 1.27 1.27)) hide)
    )
    (property "Value" "GND" (id 1) (at 78.1812 59.6646 0))
    (property "Footprint" "" (id 2) (at 78.1812 54.5338 0)
      (effects (font (size 1.27 1.27)) hide)
    )
    (property "Datasheet" "" (id 3) (at 78.1812 54.5338 0)
      (effects (font (size 1.27 1.27)) hide)
    )
    (pin "1" (uuid fa29d936-9fc8-4db7-86f3-d9ae67708e2d))
  )

  (symbol (lib_id "power:GND") (at 117.6782 64.8716 0) (unit 1)
    (in_bom yes) (on_board yes) (fields_autoplaced)
    (uuid 51b96592-c1c7-4ac2-86dd-4a344adb4b13)
    (property "Reference" "#PWR044" (id 0) (at 117.6782 71.2216 0)
      (effects (font (size 1.27 1.27)) hide)
    )
    (property "Value" "GND" (id 1) (at 117.6782 70.0024 0))
    (property "Footprint" "" (id 2) (at 117.6782 64.8716 0)
      (effects (font (size 1.27 1.27)) hide)
    )
    (property "Datasheet" "" (id 3) (at 117.6782 64.8716 0)
      (effects (font (size 1.27 1.27)) hide)
    )
    (pin "1" (uuid 2a2a609a-4a66-42eb-95c9-22185e654daa))
  )

  (symbol (lib_id "Connector:Conn_01x02_Male") (at 71.4756 50.6984 0) (unit 1)
    (in_bom yes) (on_board yes) (fields_autoplaced)
    (uuid 6e2ed327-7961-473a-be9b-080c1f8404bb)
    (property "Reference" "J7" (id 0) (at 72.1106 44.9834 0))
    (property "Value" "Conn_01x02_Male" (id 1) (at 72.1106 47.5234 0))
    (property "Footprint" "Connector_PinHeader_2.54mm:PinHeader_1x02_P2.54mm_Vertical" (id 2) (at 71.4756 50.6984 0)
      (effects (font (size 1.27 1.27)) hide)
    )
    (property "Datasheet" "~" (id 3) (at 71.4756 50.6984 0)
      (effects (font (size 1.27 1.27)) hide)
    )
    (property "Extended " "Y" (id 4) (at 71.4756 50.6984 0)
      (effects (font (size 1.27 1.27)) hide)
    )
    (property "JLC Part Number" "C492401" (id 5) (at 71.4756 50.6984 0)
      (effects (font (size 1.27 1.27)) hide)
    )
    (property "Price" "$0.0111" (id 6) (at 71.4756 50.6984 0)
      (effects (font (size 1.27 1.27)) hide)
    )
    (property "LCSC" "C492401" (id 7) (at 71.4756 50.6984 0)
      (effects (font (size 1.27 1.27)) hide)
    )
    (pin "1" (uuid e5b83c51-43fd-4624-9b32-3cc96b450761))
    (pin "2" (uuid b0f0c3ca-2cd9-4ee8-b4ec-3d8edf3e8fb1))
  )

  (symbol (lib_id "power:GND") (at 103.1748 63.119 0) (unit 1)
    (in_bom yes) (on_board yes) (fields_autoplaced)
    (uuid 7ce9a615-ce61-4432-a3e5-0f41fb589826)
    (property "Reference" "#PWR043" (id 0) (at 103.1748 69.469 0)
      (effects (font (size 1.27 1.27)) hide)
    )
    (property "Value" "GND" (id 1) (at 103.1748 68.2498 0))
    (property "Footprint" "" (id 2) (at 103.1748 63.119 0)
      (effects (font (size 1.27 1.27)) hide)
    )
    (property "Datasheet" "" (id 3) (at 103.1748 63.119 0)
      (effects (font (size 1.27 1.27)) hide)
    )
    (pin "1" (uuid 436f812d-909c-4e3f-a49b-dcc6cd7e3bb4))
  )

  (symbol (lib_id "power:GND") (at 92.1766 64.8716 0) (unit 1)
    (in_bom yes) (on_board yes) (fields_autoplaced)
    (uuid 845d51c2-1785-435a-891a-cd6df50346cc)
    (property "Reference" "#PWR042" (id 0) (at 92.1766 71.2216 0)
      (effects (font (size 1.27 1.27)) hide)
    )
    (property "Value" "GND" (id 1) (at 92.1766 70.0024 0))
    (property "Footprint" "" (id 2) (at 92.1766 64.8716 0)
      (effects (font (size 1.27 1.27)) hide)
    )
    (property "Datasheet" "" (id 3) (at 92.1766 64.8716 0)
      (effects (font (size 1.27 1.27)) hide)
    )
    (pin "1" (uuid c1b7346b-db54-433b-b8b6-56636bea4736))
  )

  (symbol (lib_id "Transistor_FET:AO3400A") (at 148.7678 57.15 0) (unit 1)
    (in_bom yes) (on_board yes) (fields_autoplaced)
    (uuid 8e521e98-a6bf-419d-8d11-709a8c71fc5b)
    (property "Reference" "Q4" (id 0) (at 154.813 55.8799 0)
      (effects (font (size 1.27 1.27)) (justify left))
    )
    (property "Value" "AO3400A" (id 1) (at 154.813 58.4199 0)
      (effects (font (size 1.27 1.27)) (justify left))
    )
    (property "Footprint" "Package_TO_SOT_SMD:SOT-23" (id 2) (at 153.8478 59.055 0)
      (effects (font (size 1.27 1.27) italic) (justify left) hide)
    )
    (property "Datasheet" "http://www.aosmd.com/pdfs/datasheet/AO3400A.pdf" (id 3) (at 148.7678 57.15 0)
      (effects (font (size 1.27 1.27)) (justify left) hide)
    )
    (property "JLC Part Number" "C20917" (id 4) (at 148.7678 57.15 0)
      (effects (font (size 1.27 1.27)) hide)
    )
    (property "LCSC" "C20917" (id 5) (at 148.7678 57.15 0)
      (effects (font (size 1.27 1.27)) hide)
    )
    (pin "1" (uuid 331acaae-5794-496b-a3c9-c85b3ccef332))
    (pin "2" (uuid dc10060c-459a-447c-89f8-5267fd759399))
    (pin "3" (uuid 0fe0696f-94ce-4daf-97c6-5983ab5594c9))
  )

  (symbol (lib_id "Device:R_Small_US") (at 92.1766 62.3316 0) (unit 1)
    (in_bom yes) (on_board yes) (fields_autoplaced)
    (uuid ca579239-ffe9-4056-9bfe-a59158ba24d5)
    (property "Reference" "R16" (id 0) (at 94.7166 61.0615 0)
      (effects (font (size 1.27 1.27)) (justify left))
    )
    (property "Value" "4.7K" (id 1) (at 94.7166 63.6015 0)
      (effects (font (size 1.27 1.27)) (justify left))
    )
    (property "Footprint" "Resistor_SMD:R_0603_1608Metric" (id 2) (at 92.1766 62.3316 0)
      (effects (font (size 1.27 1.27)) hide)
    )
    (property "Datasheet" "~" (id 3) (at 92.1766 62.3316 0)
      (effects (font (size 1.27 1.27)) hide)
    )
    (property "JLC Part Number" "C23162" (id 4) (at 92.1766 62.3316 0)
      (effects (font (size 1.27 1.27)) hide)
    )
    (property "Price" "$0.0013" (id 5) (at 92.1766 62.3316 0)
      (effects (font (size 1.27 1.27)) hide)
    )
    (property "Extended " "N" (id 6) (at 92.1766 62.3316 0)
      (effects (font (size 1.27 1.27)) hide)
    )
    (property "LCSC" "C23162" (id 7) (at 92.1766 62.3316 0)
      (effects (font (size 1.27 1.27)) hide)
    )
    (pin "1" (uuid ee570f83-5647-4f56-bb4a-7bbb662bffaf))
    (pin "2" (uuid 42d79e9a-2240-4419-af7e-19bb8bf5830e))
  )

  (symbol (lib_id "power:GND") (at 142.0876 63.7794 0) (unit 1)
    (in_bom yes) (on_board yes) (fields_autoplaced)
    (uuid cd50debc-7120-4e15-8fb9-455f85875687)
    (property "Reference" "#PWR048" (id 0) (at 142.0876 70.1294 0)
      (effects (font (size 1.27 1.27)) hide)
    )
    (property "Value" "GND" (id 1) (at 142.0876 68.9102 0))
    (property "Footprint" "" (id 2) (at 142.0876 63.7794 0)
      (effects (font (size 1.27 1.27)) hide)
    )
    (property "Datasheet" "" (id 3) (at 142.0876 63.7794 0)
      (effects (font (size 1.27 1.27)) hide)
    )
    (pin "1" (uuid 91a87433-56cc-4108-a381-7733b3be4c09))
  )

  (symbol (lib_id "Transistor_FET:AO3400A") (at 100.6348 58.039 0) (unit 1)
    (in_bom yes) (on_board yes) (fields_autoplaced)
    (uuid d57c5a55-a817-4359-8d78-9e40c933aa2d)
    (property "Reference" "Q2" (id 0) (at 106.68 56.7689 0)
      (effects (font (size 1.27 1.27)) (justify left))
    )
    (property "Value" "AO3400A" (id 1) (at 106.68 59.3089 0)
      (effects (font (size 1.27 1.27)) (justify left))
    )
    (property "Footprint" "Package_TO_SOT_SMD:SOT-23" (id 2) (at 105.7148 59.944 0)
      (effects (font (size 1.27 1.27) italic) (justify left) hide)
    )
    (property "Datasheet" "http://www.aosmd.com/pdfs/datasheet/AO3400A.pdf" (id 3) (at 100.6348 58.039 0)
      (effects (font (size 1.27 1.27)) (justify left) hide)
    )
    (property "JLC Part Number" "C20917" (id 4) (at 100.6348 58.039 0)
      (effects (font (size 1.27 1.27)) hide)
    )
    (property "LCSC" "C20917" (id 5) (at 100.6348 58.039 0)
      (effects (font (size 1.27 1.27)) hide)
    )
    (pin "1" (uuid 20516964-b8c0-42a0-8f07-c4d0718cea86))
    (pin "2" (uuid 31d54c2d-29ce-4193-9bd2-fdac7faf1ef1))
    (pin "3" (uuid f58b4997-0dec-4ebc-9c7a-042523823f96))
  )

  (symbol (lib_id "Device:R_Small_US") (at 117.6782 62.3316 0) (unit 1)
    (in_bom yes) (on_board yes) (fields_autoplaced)
    (uuid f43ecda4-cf8e-4f4b-970d-8c733cfa2ce0)
    (property "Reference" "R21" (id 0) (at 120.2182 61.0615 0)
      (effects (font (size 1.27 1.27)) (justify left))
    )
    (property "Value" "4.7K" (id 1) (at 120.2182 63.6015 0)
      (effects (font (size 1.27 1.27)) (justify left))
    )
    (property "Footprint" "Resistor_SMD:R_0603_1608Metric" (id 2) (at 117.6782 62.3316 0)
      (effects (font (size 1.27 1.27)) hide)
    )
    (property "Datasheet" "~" (id 3) (at 117.6782 62.3316 0)
      (effects (font (size 1.27 1.27)) hide)
    )
    (property "JLC Part Number" "C23162" (id 4) (at 117.6782 62.3316 0)
      (effects (font (size 1.27 1.27)) hide)
    )
    (property "Price" "$0.0013" (id 5) (at 117.6782 62.3316 0)
      (effects (font (size 1.27 1.27)) hide)
    )
    (property "Extended " "N" (id 6) (at 117.6782 62.3316 0)
      (effects (font (size 1.27 1.27)) hide)
    )
    (property "LCSC" "C23162" (id 7) (at 117.6782 62.3316 0)
      (effects (font (size 1.27 1.27)) hide)
    )
    (pin "1" (uuid bc5207cf-e513-4545-9bc2-df0c05e42e25))
    (pin "2" (uuid b00ec4c3-3318-4b50-b25c-3783b638b510))
  )

  (symbol (lib_id "Device:R_Small_US") (at 142.0876 61.2394 0) (unit 1)
    (in_bom yes) (on_board yes) (fields_autoplaced)
    (uuid fe4cd899-f7f9-459b-a9c6-af777f444958)
    (property "Reference" "R22" (id 0) (at 144.6276 59.9693 0)
      (effects (font (size 1.27 1.27)) (justify left))
    )
    (property "Value" "4.7K" (id 1) (at 144.6276 62.5093 0)
      (effects (font (size 1.27 1.27)) (justify left))
    )
    (property "Footprint" "Resistor_SMD:R_0603_1608Metric" (id 2) (at 142.0876 61.2394 0)
      (effects (font (size 1.27 1.27)) hide)
    )
    (property "Datasheet" "~" (id 3) (at 142.0876 61.2394 0)
      (effects (font (size 1.27 1.27)) hide)
    )
    (property "JLC Part Number" "C23162" (id 4) (at 142.0876 61.2394 0)
      (effects (font (size 1.27 1.27)) hide)
    )
    (property "Price" "$0.0013" (id 5) (at 142.0876 61.2394 0)
      (effects (font (size 1.27 1.27)) hide)
    )
    (property "Extended " "N" (id 6) (at 142.0876 61.2394 0)
      (effects (font (size 1.27 1.27)) hide)
    )
    (property "LCSC" "C23162" (id 7) (at 142.0876 61.2394 0)
      (effects (font (size 1.27 1.27)) hide)
    )
    (pin "1" (uuid c480871e-ac04-42c7-a5a2-0c46f573bf03))
    (pin "2" (uuid 432a8362-2cae-41ef-b3f9-a96596ff4d9b))
  )
)
