M48
; DRILL file {KiCad (6.0.2-0)} date Sunday, 20 March 2022 at 21:45:14
; FORMAT={-:-/ absolute / inch / decimal}
; #@! TF.CreationDate,2022-03-20T21:45:14+02:00
; #@! TF.GenerationSoftware,Kicad,Pcbnew,(6.0.2-0)
; #@! TF.FileFunction,MixedPlating,1,2
FMAT,2
INCH
; #@! TA.AperFunction,Plated,PTH,ViaDrill
T1C0.0157
; #@! TA.AperFunction,Plated,PTH,ComponentDrill
T2C0.0197
; #@! TA.AperFunction,Plated,PTH,ComponentDrill
T3C0.0276
; #@! TA.AperFunction,Plated,PTH,ComponentDrill
T4C0.0327
; #@! TA.AperFunction,Plated,PTH,ComponentDrill
T5C0.0394
; #@! TA.AperFunction,Plated,PTH,ComponentDrill
T6C0.0941
; #@! TA.AperFunction,Plated,PTH,ComponentDrill
T7C0.1358
%
G90
G05
T1
X3.702Y-4.8
X3.814Y-4.768
X3.83Y-3.66
X3.89Y-1.59
X3.925Y-4.315
X3.96Y-3.82
X3.96Y-4.59
X3.965Y-4.36
X4.015Y-3.155
X4.02Y-3.445
X4.125Y-3.795
X4.146Y-4.458
X4.146Y-4.764
X4.2279Y-3.291
X4.2415Y-3.505
X4.255Y-4.155
X4.27Y-3.795
X4.335Y-3.505
X4.342Y-4.836
X4.385Y-4.285
X4.4Y-1.84
X4.46Y-4.645
X4.464Y-4.432
X4.52Y-4.6
X4.56Y-1.88
X4.688Y-4.784
X4.88Y-1.88
X5.048Y-4.17
X5.094Y-4.154
X5.096Y-4.072
X5.16Y-1.94
X5.176Y-3.9
X5.24Y-1.81
X5.242Y-3.828
X5.282Y-4.274
X5.482Y-4.1134
X5.5006Y-4.0
X5.505Y-1.985
X5.514Y-3.706
X5.514Y-3.776
X5.71Y-4.192
X5.746Y-3.92
X5.804Y-4.256
X5.804Y-4.348
X5.812Y-3.878
X5.848Y-4.09
X5.932Y-4.148
X5.944Y-3.578
X5.95Y-3.516
X6.034Y-4.808
X6.042Y-3.56
X6.082Y-3.778
X6.15Y-1.88
X6.2286Y-4.15
X6.26Y-1.76
X6.3Y-1.91
X6.304Y-4.15
X6.362Y-4.566
X6.424Y-4.756
X6.428Y-4.81
X6.444Y-4.604
X6.4974Y-4.808
X6.5678Y-4.4282
X6.596Y-4.104
X6.664Y-4.144
X6.664Y-4.404
X6.88Y-1.73
X6.894Y-4.58
X6.924Y-4.732
X6.95Y-4.254
X6.97Y-1.71
X6.994Y-4.386
X7.026Y-4.206
X7.164Y-4.358
X7.176Y-5.05
X7.23Y-1.91
X7.28Y-1.95
T3
X3.7494Y-4.0871
X3.7494Y-4.278
T4
X6.3201Y-1.6541
X6.3701Y-1.6541
X6.4201Y-1.6541
T5
X3.8661Y-2.952
X3.8661Y-3.352
X3.8661Y-4.952
X3.8661Y-5.352
X3.9661Y-2.952
X3.9661Y-3.352
X3.9661Y-4.952
X3.9661Y-5.352
X4.04Y-2.3
X4.04Y-2.4
X4.0661Y-2.952
X4.0661Y-3.352
X4.0661Y-4.952
X4.0661Y-5.352
X4.1661Y-2.952
X4.1661Y-3.352
X4.1661Y-4.952
X4.1661Y-5.352
X4.2106Y-1.6102
X4.2106Y-1.7102
X4.2661Y-2.952
X4.2661Y-3.352
X4.2661Y-4.952
X4.2661Y-5.352
X4.3106Y-1.6102
X4.3106Y-1.7102
X4.3661Y-2.952
X4.3661Y-3.352
X4.3661Y-4.952
X4.3661Y-5.352
X4.4106Y-1.6102
X4.4106Y-1.7102
X4.4661Y-2.952
X4.4661Y-3.352
X4.4661Y-4.952
X4.4661Y-5.352
X4.5106Y-1.6102
X4.5106Y-1.7102
X4.5661Y-2.952
X4.5661Y-3.352
X4.5661Y-4.952
X4.5661Y-5.352
X4.6106Y-1.6102
X4.6106Y-1.7102
X4.6661Y-2.952
X4.6661Y-3.352
X4.6661Y-4.952
X4.6661Y-5.352
X4.7106Y-1.6102
X4.7106Y-1.7102
X4.7661Y-2.952
X4.7661Y-3.352
X4.7661Y-4.952
X4.7661Y-5.352
X4.8106Y-1.6102
X4.8106Y-1.7102
X4.8661Y-2.952
X4.8661Y-3.352
X4.8661Y-4.952
X4.8661Y-5.352
X4.9106Y-1.6102
X4.9106Y-1.7102
X4.94Y-2.29
X4.94Y-2.39
X4.9661Y-2.952
X4.9661Y-3.352
X4.9661Y-4.952
X4.9661Y-5.352
X5.0661Y-2.952
X5.0661Y-3.352
X5.0661Y-4.952
X5.0661Y-5.352
X5.1661Y-2.952
X5.1661Y-3.352
X5.1661Y-4.952
X5.1661Y-5.352
X5.2661Y-2.952
X5.2661Y-3.352
X5.2661Y-4.952
X5.2661Y-5.352
X5.3661Y-2.952
X5.3661Y-3.352
X5.3661Y-4.952
X5.3661Y-5.352
X5.4661Y-2.952
X5.4661Y-3.352
X5.4661Y-4.952
X5.4661Y-5.352
X5.5661Y-2.952
X5.5661Y-3.352
X5.5661Y-4.952
X5.5661Y-5.352
X5.6661Y-2.952
X5.6661Y-3.352
X5.6661Y-4.952
X5.6661Y-5.352
X5.7661Y-2.952
X5.7661Y-3.352
X5.7661Y-4.952
X5.7661Y-5.352
X5.8661Y-2.952
X5.8661Y-3.352
X5.8661Y-4.952
X5.8661Y-5.352
X5.91Y-2.27
X5.91Y-2.37
X5.9661Y-2.952
X5.9661Y-3.352
X5.9661Y-4.952
X5.9661Y-5.352
X6.0661Y-2.952
X6.0661Y-3.352
X6.0661Y-4.952
X6.0661Y-5.352
X6.1661Y-2.952
X6.1661Y-3.352
X6.1661Y-4.952
X6.1661Y-5.352
X6.2661Y-2.952
X6.2661Y-3.352
X6.2661Y-4.952
X6.2661Y-5.352
X6.3661Y-2.952
X6.3661Y-3.352
X6.3661Y-4.952
X6.3661Y-5.352
X6.4661Y-2.952
X6.4661Y-3.352
X6.4661Y-4.952
X6.4661Y-5.352
X6.5661Y-2.952
X6.5661Y-3.352
X6.5661Y-4.952
X6.5661Y-5.352
X6.6661Y-2.952
X6.6661Y-3.352
X6.6661Y-4.952
X6.6661Y-5.352
X6.74Y-2.3
X6.74Y-2.4
X6.7661Y-2.952
X6.7661Y-3.352
X6.7661Y-4.952
X6.7661Y-5.352
X6.8661Y-2.952
X6.8661Y-3.352
X6.8661Y-4.952
X6.8661Y-5.352
X6.9661Y-2.952
X6.9661Y-3.352
X6.9661Y-4.952
X6.9661Y-5.352
X7.0661Y-2.952
X7.0661Y-3.352
X7.0661Y-4.952
X7.0661Y-5.352
X7.284Y-4.262
X7.284Y-4.362
X7.284Y-4.462
X7.284Y-4.562
X7.284Y-4.662
X7.284Y-4.762
X7.284Y-4.862
X7.284Y-4.962
X7.384Y-4.262
X7.384Y-4.362
X7.384Y-4.462
X7.384Y-4.562
X7.384Y-4.662
X7.384Y-4.762
X7.384Y-4.862
X7.384Y-4.962
T6
X7.0806Y-3.671
T7
X4.5794Y-3.671
X6.7526Y-4.301
T2
G00X3.6293Y-4.0408
M15
G01X3.6608Y-4.0408
M16
G05
G00X3.6293Y-4.3243
M15
G01X3.6608Y-4.3243
M16
G05
T0
M30
