M48
; DRILL file {KiCad (6.0.2)} date Fri Apr  8 21:03:44 2022
; FORMAT={-:-/ absolute / inch / decimal}
; #@! TF.CreationDate,2022-04-08T21:03:44+02:00
; #@! TF.GenerationSoftware,Kicad,Pcbnew,(6.0.2)
; #@! TF.FileFunction,Plated,1,2,PTH
FMAT,2
INCH
; #@! TA.AperFunction,Plated,PTH,ViaDrill
T1C0.0157
; #@! TA.AperFunction,Plated,PTH,ComponentDrill
T2C0.0197
; #@! TA.AperFunction,Plated,PTH,ComponentDrill
T3C0.0276
; #@! TA.AperFunction,Plated,PTH,ComponentDrill
T4C0.0327
; #@! TA.AperFunction,Plated,PTH,ComponentDrill
T5C0.0394
; #@! TA.AperFunction,Plated,PTH,ComponentDrill
T6C0.0941
; #@! TA.AperFunction,Plated,PTH,ComponentDrill
T7C0.1358
%
G90
G05
T1
X3.635Y-1.7
X3.637Y-4.138
X3.675Y-4.32
X3.715Y-1.76
X3.725Y-3.94
X3.7612Y-1.715
X3.87Y-1.855
X3.881Y-2.751
X3.895Y-1.565
X4.324Y-4.505
X4.334Y-2.857
X4.463Y-4.372
X4.505Y-4.858
X4.515Y-4.757
X4.579Y-4.75
X4.683Y-4.81
X4.9002Y-2.3124
X4.96Y-2.74
X5.05Y-1.625
X5.06Y-1.71
X5.176Y-4.65
X5.268Y-4.528
X5.28Y-1.855
X5.29Y-2.825
X5.555Y-2.825
X5.712Y-4.004
X5.724Y-4.732
X5.746Y-4.1114
X5.754Y-4.0445
X5.815Y-3.81
X5.84Y-4.322
X5.854Y-4.478
X5.916Y-4.11
X5.9166Y-2.2907
X6.04Y-2.85
X6.115Y-1.625
X6.116Y-4.62
X6.124Y-4.702
X6.142Y-4.028
X6.155Y-4.36
X6.225Y-1.7
X6.285Y-1.58
X6.3311Y-1.7597
X6.338Y-4.47
X6.34Y-4.61
X6.358Y-4.702
X6.375Y-2.855
X6.432Y-3.758
X6.468Y-3.976
X6.58Y-4.582
X6.61Y-4.372
X6.628Y-3.824
X6.656Y-4.582
X6.678Y-4.096
X6.684Y-4.186
X6.695Y-2.8565
X6.7016Y-2.2907
X6.702Y-4.7586
X6.704Y-4.83
X6.79Y-2.73
X6.832Y-4.524
X7.012Y-4.563
X7.132Y-4.5806
X7.148Y-4.37
X7.16Y-1.805
X7.175Y-2.515
X7.205Y-1.9
X7.246Y-2.908
X7.318Y-3.374
X7.33Y-1.86
X7.37Y-3.846
T3
X3.7954Y-4.4691
X3.7954Y-4.66
T4
X7.165Y-1.6641
X7.215Y-1.6641
X7.265Y-1.6641
T5
X3.66Y-2.0948
X3.66Y-2.1948
X3.8661Y-2.952
X3.8661Y-3.352
X3.8661Y-4.952
X3.8661Y-5.352
X3.9661Y-2.952
X3.9661Y-3.352
X3.9661Y-4.952
X3.9661Y-5.352
X4.0644Y-1.6298
X4.0644Y-1.7298
X4.0661Y-2.952
X4.0661Y-3.352
X4.0661Y-4.952
X4.0661Y-5.352
X4.1644Y-1.6298
X4.1644Y-1.7298
X4.1661Y-2.952
X4.1661Y-3.352
X4.1661Y-4.952
X4.1661Y-5.352
X4.2644Y-1.6298
X4.2644Y-1.7298
X4.2661Y-2.952
X4.2661Y-3.352
X4.2661Y-4.952
X4.2661Y-5.352
X4.3644Y-1.6298
X4.3644Y-1.7298
X4.3661Y-2.952
X4.3661Y-3.352
X4.3661Y-4.952
X4.3661Y-5.352
X4.4644Y-1.6298
X4.4644Y-1.7298
X4.4661Y-2.952
X4.4661Y-3.352
X4.4661Y-4.952
X4.4661Y-5.352
X4.5644Y-1.6298
X4.5644Y-1.7298
X4.5661Y-2.952
X4.5661Y-3.352
X4.5661Y-4.952
X4.5661Y-5.352
X4.6644Y-1.6298
X4.6644Y-1.7298
X4.6661Y-2.952
X4.6661Y-3.352
X4.6661Y-4.952
X4.6661Y-5.352
X4.7644Y-1.6298
X4.7644Y-1.7298
X4.7661Y-2.952
X4.7661Y-3.352
X4.7661Y-4.952
X4.7661Y-5.352
X4.8661Y-2.952
X4.8661Y-3.352
X4.8661Y-4.952
X4.8661Y-5.352
X4.9661Y-2.952
X4.9661Y-3.352
X4.9661Y-4.952
X4.9661Y-5.352
X5.0661Y-2.952
X5.0661Y-3.352
X5.0661Y-4.952
X5.0661Y-5.352
X5.1661Y-2.952
X5.1661Y-3.352
X5.1661Y-4.952
X5.1661Y-5.352
X5.2661Y-2.952
X5.2661Y-3.352
X5.2661Y-4.952
X5.2661Y-5.352
X5.3661Y-2.952
X5.3661Y-3.352
X5.3661Y-4.952
X5.3661Y-5.352
X5.4661Y-2.952
X5.4661Y-3.352
X5.4661Y-4.952
X5.4661Y-5.352
X5.5661Y-2.952
X5.5661Y-3.352
X5.5661Y-4.952
X5.5661Y-5.352
X5.6661Y-2.952
X5.6661Y-3.352
X5.6661Y-4.952
X5.6661Y-5.352
X5.7661Y-2.952
X5.7661Y-3.352
X5.7661Y-4.952
X5.7661Y-5.352
X5.8661Y-2.952
X5.8661Y-3.352
X5.8661Y-4.952
X5.8661Y-5.352
X5.9661Y-2.952
X5.9661Y-3.352
X5.9661Y-4.952
X5.9661Y-5.352
X6.0661Y-2.952
X6.0661Y-3.352
X6.0661Y-4.952
X6.0661Y-5.352
X6.1661Y-2.952
X6.1661Y-3.352
X6.1661Y-4.952
X6.1661Y-5.352
X6.2661Y-2.952
X6.2661Y-3.352
X6.2661Y-4.952
X6.2661Y-5.352
X6.3661Y-2.952
X6.3661Y-3.352
X6.3661Y-4.952
X6.3661Y-5.352
X6.4661Y-2.952
X6.4661Y-3.352
X6.4661Y-4.952
X6.4661Y-5.352
X6.5661Y-2.952
X6.5661Y-3.352
X6.5661Y-4.952
X6.5661Y-5.352
X6.6661Y-2.952
X6.6661Y-3.352
X6.6661Y-4.952
X6.6661Y-5.352
X6.7661Y-2.952
X6.7661Y-3.352
X6.7661Y-4.952
X6.7661Y-5.352
X6.8661Y-2.952
X6.8661Y-3.352
X6.8661Y-4.952
X6.8661Y-5.352
X6.9661Y-2.952
X6.9661Y-3.352
X6.9661Y-4.952
X6.9661Y-5.352
X7.0661Y-2.952
X7.0661Y-3.352
X7.0661Y-4.952
X7.0661Y-5.352
X7.24Y-4.014
X7.24Y-4.114
X7.24Y-4.214
X7.24Y-4.314
X7.24Y-4.414
X7.24Y-4.514
X7.24Y-4.614
X7.24Y-4.714
X7.34Y-4.014
X7.34Y-4.114
X7.34Y-4.214
X7.34Y-4.314
X7.34Y-4.414
X7.34Y-4.514
X7.34Y-4.614
X7.34Y-4.714
T6
X6.8106Y-3.821
T7
X4.3094Y-3.821
X6.4826Y-4.451
T2
G00X3.6753Y-4.4228
M15
G01X3.7068Y-4.4228
M16
G05
G00X3.6753Y-4.7063
M15
G01X3.7068Y-4.7063
M16
G05
T0
M30
