%TF.GenerationSoftware,KiCad,Pcbnew,(6.0.2)*%
%TF.CreationDate,2022-04-08T21:03:44+02:00*%
%TF.ProjectId,main,6d61696e-2e6b-4696-9361-645f70636258,rev?*%
%TF.SameCoordinates,Original*%
%TF.FileFunction,Legend,Bot*%
%TF.FilePolarity,Positive*%
%FSLAX46Y46*%
G04 Gerber Fmt 4.6, Leading zero omitted, Abs format (unit mm)*
G04 Created by KiCad (PCBNEW (6.0.2)) date 2022-04-08 21:03:44*
%MOMM*%
%LPD*%
G01*
G04 APERTURE LIST*
%ADD10C,0.150000*%
%ADD11C,0.127000*%
G04 APERTURE END LIST*
D10*
%TO.C,BT1*%
X103108024Y-116521757D02*
X102965119Y-116569392D01*
X102917485Y-116617027D01*
X102869850Y-116712297D01*
X102869850Y-116855201D01*
X102917485Y-116950471D01*
X102965119Y-116998105D01*
X103060389Y-117045740D01*
X103441468Y-117045740D01*
X103441468Y-116045409D01*
X103108024Y-116045409D01*
X103012754Y-116093044D01*
X102965119Y-116140679D01*
X102917485Y-116235948D01*
X102917485Y-116331218D01*
X102965119Y-116426488D01*
X103012754Y-116474122D01*
X103108024Y-116521757D01*
X103441468Y-116521757D01*
X102584041Y-116045409D02*
X102012423Y-116045409D01*
X102298232Y-117045740D02*
X102298232Y-116045409D01*
X101154997Y-117045740D02*
X101726614Y-117045740D01*
X101440806Y-117045740D02*
X101440806Y-116045409D01*
X101536075Y-116188314D01*
X101631345Y-116283583D01*
X101726614Y-116331218D01*
D11*
X175583400Y-94729400D02*
X98533400Y-94729400D01*
X98533400Y-115379400D02*
X175583400Y-115379400D01*
%TD*%
M02*
