
(module SW_TS-1187A-B-A-B (layer F.Cu) (tedit 6235FDB0)
  (descr "")
  (fp_text reference REF** (at -0.825 -3.635 0) (layer F.SilkS)
    (effects (font (size 1.0 1.0) (thickness 0.15)))
  )
  (fp_text value SW_TS-1187A-B-A-B (at 6.795 3.565 0) (layer F.Fab)
    (effects (font (size 1.0 1.0) (thickness 0.15)))
  )
  (pad A smd rect (at -3.0 -1.875) (size 1.0 0.75) (layers F.Cu F.Mask F.Paste))
  (pad B smd rect (at 3.0 -1.875) (size 1.0 0.75) (layers F.Cu F.Mask F.Paste))
  (pad C smd rect (at -3.0 1.875) (size 1.0 0.75) (layers F.Cu F.Mask F.Paste))
  (pad D smd rect (at 3.0 1.875) (size 1.0 0.75) (layers F.Cu F.Mask F.Paste))
  (fp_line (start 2.55 2.55) (end 2.55 -2.55) (layer F.Fab) (width 0.127))
  (fp_line (start 2.55 -2.55) (end -2.55 -2.55) (layer F.Fab) (width 0.127))
  (fp_line (start -2.55 -2.55) (end -2.55 2.55) (layer F.Fab) (width 0.127))
  (fp_line (start -2.55 2.55) (end 2.55 2.55) (layer F.Fab) (width 0.127))
  (fp_line (start 2.25 2.55) (end -2.25 2.55) (layer F.SilkS) (width 0.127))
  (fp_line (start 2.25 -2.55) (end -2.25 -2.55) (layer F.SilkS) (width 0.127))
  (fp_line (start -3.75 -2.5) (end -3.75 -1.25) (layer F.CrtYd) (width 0.05))
  (fp_circle (center -4.25 -1.875) (end -4.15 -1.875) (layer F.SilkS) (width 0.2))
  (fp_circle (center -4.25 -1.875) (end -4.15 -1.875) (layer F.Fab) (width 0.2))
  (fp_line (start -2.55 -1.18) (end -2.55 1.18) (layer F.SilkS) (width 0.127))
  (fp_line (start 2.55 1.18) (end 2.55 -1.18) (layer F.SilkS) (width 0.127))
  (fp_line (start -2.8 -1.25) (end -2.8 1.25) (layer F.CrtYd) (width 0.05))
  (fp_line (start -3.75 -1.25) (end -2.8 -1.25) (layer F.CrtYd) (width 0.05))
  (fp_line (start -3.75 1.25) (end -2.8 1.25) (layer F.CrtYd) (width 0.05))
  (fp_line (start -2.8 -2.8) (end -2.8 -2.5) (layer F.CrtYd) (width 0.05))
  (fp_line (start -3.75 -2.5) (end -2.8 -2.5) (layer F.CrtYd) (width 0.05))
  (fp_line (start 2.8 -2.8) (end -2.8 -2.8) (layer F.CrtYd) (width 0.05))
  (fp_line (start 3.75 2.5) (end 3.75 1.25) (layer F.CrtYd) (width 0.05))
  (fp_line (start 2.8 2.8) (end 2.8 2.5) (layer F.CrtYd) (width 0.05))
  (fp_line (start 3.75 2.5) (end 2.8 2.5) (layer F.CrtYd) (width 0.05))
  (fp_line (start -2.8 2.8) (end 2.8 2.8) (layer F.CrtYd) (width 0.05))
  (fp_line (start 3.75 -2.5) (end 3.75 -1.25) (layer F.CrtYd) (width 0.05))
  (fp_line (start 2.8 -1.25) (end 2.8 1.25) (layer F.CrtYd) (width 0.05))
  (fp_line (start 3.75 -1.25) (end 2.8 -1.25) (layer F.CrtYd) (width 0.05))
  (fp_line (start 3.75 1.25) (end 2.8 1.25) (layer F.CrtYd) (width 0.05))
  (fp_line (start 2.8 -2.8) (end 2.8 -2.5) (layer F.CrtYd) (width 0.05))
  (fp_line (start 3.75 -2.5) (end 2.8 -2.5) (layer F.CrtYd) (width 0.05))
  (fp_line (start -3.75 2.5) (end -3.75 1.25) (layer F.CrtYd) (width 0.05))
  (fp_line (start -2.8 2.8) (end -2.8 2.5) (layer F.CrtYd) (width 0.05))
  (fp_line (start -3.75 2.5) (end -2.8 2.5) (layer F.CrtYd) (width 0.05))
)