
(module SHOUHAN_MICROXNJ (layer F.Cu) (tedit 62348F09)
  (descr "<b>MICROXNJ-1</b><br>")
  (fp_text reference REF** (at -1.025 6.735 0) (layer F.SilkS)
    (effects (font (size 1.0 1.0) (thickness 0.15)))
  )
  (fp_text value SHOUHAN_MICROXNJ (at 5.96 8.235 0) (layer F.Fab)
    (effects (font (size 1.0 1.0) (thickness 0.15)))
  )
  (pad 1 smd rect (at 1.3 4.375 90.0) (size 1.25 0.4) (layers F.Cu F.Mask F.Paste))
  (pad 2 smd rect (at 0.65 4.375 90.0) (size 1.25 0.4) (layers F.Cu F.Mask F.Paste))
  (pad 3 smd rect (at 0.0 4.375 90.0) (size 1.25 0.4) (layers F.Cu F.Mask F.Paste))
  (pad 4 smd rect (at -0.65 4.375 90.0) (size 1.25 0.4) (layers F.Cu F.Mask F.Paste))
  (pad 5 smd rect (at -1.3 4.375 90.0) (size 1.25 0.4) (layers F.Cu F.Mask F.Paste))
  (pad S5 thru_hole circle (at 2.425 4.4) (size 1.3 1.3) (drill 0.7) (layers *.Cu *.Mask))
  (pad S4 thru_hole circle (at -2.425 4.4) (size 1.3 1.3) (drill 0.7) (layers *.Cu *.Mask))
  (pad S6 thru_hole oval (at 3.6 1.75) (size 1.07 2.14) (drill oval 0.5 1.3) (layers *.Cu *.Mask))
  (pad S3 thru_hole oval (at -3.6 1.75) (size 1.07 2.14) (drill oval 0.5 1.3) (layers *.Cu *.Mask))
  (pad S2 smd rect (at 0.8 1.725 90.0) (size 1.35 0.6) (layers F.Cu F.Mask F.Paste))
  (pad S1 smd rect (at -0.8 1.725 90.0) (size 1.35 0.6) (layers F.Cu F.Mask F.Paste))
  (fp_line (start -3.6 -0.4) (end 3.6 -0.4) (layer F.Fab) (width 0.127))
  (fp_line (start 3.6 -0.4) (end 3.6 4.66) (layer F.Fab) (width 0.127))
  (fp_line (start 3.6 4.66) (end -3.6 4.66) (layer F.Fab) (width 0.127))
  (fp_line (start -3.6 4.66) (end -3.6 -0.4) (layer F.Fab) (width 0.127))
  (fp_line (start -3.6 3.14) (end -3.6 4.66) (layer F.SilkS) (width 0.127))
  (fp_line (start -3.6 4.66) (end -3.395 4.66) (layer F.SilkS) (width 0.127))
  (fp_line (start 3.6 3.14) (end 3.6 4.66) (layer F.SilkS) (width 0.127))
  (fp_line (start 3.6 4.66) (end 3.395 4.66) (layer F.SilkS) (width 0.127))
  (fp_line (start -4.2 0.0) (end 6.0 0.0) (layer F.Fab) (width 0.127))
  (fp_text user PCB-EDGE (at 4.35 -0.15) (layer F.Fab)
    (effects (font (size 0.48 0.48) (thickness 0.15)))
  )
  (fp_line (start -4.385 -0.65) (end 4.385 -0.65) (layer F.CrtYd) (width 0.05))
  (fp_line (start 4.385 -0.65) (end 4.385 5.3) (layer F.CrtYd) (width 0.05))
  (fp_line (start 4.385 5.3) (end -4.385 5.3) (layer F.CrtYd) (width 0.05))
  (fp_line (start -4.385 5.3) (end -4.385 -0.65) (layer F.CrtYd) (width 0.05))
  (fp_circle (center 1.35 5.75) (end 1.45 5.75) (layer F.SilkS) (width 0.2))
  (fp_circle (center 1.35 5.75) (end 1.45 5.75) (layer F.Fab) (width 0.2))
  (fp_line (start -3.6 0.36) (end -3.6 0.0) (layer F.SilkS) (width 0.127))
  (fp_line (start -3.6 0.0) (end 3.6 0.0) (layer F.SilkS) (width 0.127))
  (fp_line (start 3.6 0.0) (end 3.6 0.36) (layer F.SilkS) (width 0.127))
)